﻿object={
	name="tree_jungle_01_d_generator_1_0"
	clamp_to_water_level=no
	render_under_water=no
	generated_content=yes
	layer="tree_high_layer"
	pdxmesh="tree_jungle_01_d_mesh"
	count=56
	transform="443.393768 0.000000 230.573822 0.000000 0.291589 0.000000 -0.956544 0.907552 0.907552 0.907552
540.709961 0.000000 207.263916 0.000000 0.128971 0.000000 -0.991648 0.771592 0.771592 0.771592
1916.324463 0.000000 188.689468 0.000000 0.775372 0.000000 0.631505 0.747440 0.747440 0.747440
1940.731567 0.000000 187.015015 0.000000 0.183555 0.000000 -0.983009 0.757787 0.757787 0.757787
1930.127319 0.000000 189.666641 0.000000 0.992052 0.000000 0.125827 0.748583 0.748583 0.748583
1931.147217 0.000000 192.740005 0.000000 0.876701 0.000000 0.481036 0.749060 0.749060 0.749060
1917.043335 0.000000 292.089386 0.000000 0.281532 0.000000 -0.959552 0.759627 0.759627 0.759627
1912.467407 0.000000 295.533752 0.000000 0.504647 0.000000 0.863326 0.736345 0.736345 0.736345
1935.971436 0.000000 282.525085 0.000000 0.741411 0.000000 -0.671052 0.758264 0.758264 0.758264
2050.067383 0.000000 9.461849 0.000000 0.424275 0.000000 0.905533 0.739396 0.739396 0.739396
2072.946045 0.000000 188.053497 0.000000 0.482487 0.000000 0.875903 0.704036 0.704036 0.704036
2727.993408 0.000000 253.893768 0.000000 0.321139 0.000000 -0.947032 0.761645 0.761645 0.761645
2716.038818 0.000000 263.602234 0.000000 0.990105 0.000000 0.140327 0.749736 0.749736 0.749736
2723.167725 0.000000 256.500000 0.000000 0.742708 0.000000 -0.669615 0.762364 0.762364 0.762364
6135.897949 0.000000 1396.026001 0.000000 0.628256 0.000000 -0.778007 0.753338 0.753338 0.753338
6119.579102 0.000000 1405.612549 0.000000 0.998297 0.000000 -0.058334 0.750219 0.750219 0.750219
6124.900879 0.000000 1396.127197 0.000000 0.054437 0.000000 -0.998517 0.761357 0.761357 0.761357
6129.619629 0.000000 1404.064331 0.000000 0.769990 0.000000 0.638056 0.743522 0.743522 0.743522
6125.146973 0.000000 1386.972412 0.000000 0.673262 0.000000 -0.739404 0.756233 0.756233 0.756233
6119.104980 0.000000 1383.110962 0.000000 0.916597 0.000000 0.399813 0.745379 0.745379 0.745379
6118.209473 0.000000 1396.060425 0.000000 0.717956 0.000000 0.696088 0.739909 0.739909 0.739909
6130.110840 0.000000 1407.646973 0.000000 0.930251 0.000000 0.366923 0.735931 0.735931 0.735931
6134.311035 0.000000 1408.408447 0.000000 0.497427 0.000000 -0.867506 0.753933 0.753933 0.753933
6114.780273 0.000000 1418.801147 0.000000 0.382783 0.000000 0.923838 0.708092 0.708092 0.708092
6132.142090 0.000000 1414.959473 0.000000 0.998156 0.000000 0.060709 0.743517 0.743517 0.743517
6120.692871 0.000000 1409.727417 0.000000 0.986468 0.000000 0.163952 0.741982 0.741982 0.741982
6133.370117 0.000000 1423.437256 0.000000 0.958704 0.000000 -0.284407 0.764040 0.764040 0.764040
6133.953613 0.000000 1418.920044 0.000000 0.372454 0.000000 0.928051 0.725508 0.725508 0.725508
6130.477051 0.000000 1411.105469 0.000000 0.158594 0.000000 0.987344 0.707713 0.707713 0.707713
6124.781250 0.000000 1412.582275 0.000000 0.999964 0.000000 -0.008450 0.750506 0.750506 0.750506
6116.847168 0.000000 1421.388550 0.000000 0.040395 0.000000 0.999184 0.669765 0.669765 0.669765
6131.198242 0.000000 1408.093018 0.000000 0.614438 0.000000 0.788965 0.712550 0.712550 0.712550
6124.393555 0.000000 1417.517822 0.000000 0.173215 0.000000 -0.984884 0.817995 0.817995 0.817995
6124.862305 0.000000 1415.076904 0.000000 0.979273 0.000000 -0.202545 0.761457 0.761457 0.761457
6131.160156 0.000000 1424.185059 0.000000 0.735948 0.000000 0.677038 0.704045 0.704045 0.704045
6133.590820 0.000000 1416.678345 0.000000 0.548225 0.000000 0.836331 0.686939 0.686939 0.686939
6133.076660 0.000000 1412.965088 0.000000 0.192392 0.000000 0.981318 0.636538 0.636538 0.636538
6130.367188 0.000000 1422.446533 0.000000 0.848498 0.000000 -0.529198 0.801164 0.801164 0.801164
6180.454590 0.000000 1005.683228 0.000000 0.645360 0.000000 0.763879 0.746745 0.746745 0.746745
6183.571289 0.000000 1021.706238 0.000000 0.695979 0.000000 -0.718062 0.751500 0.751500 0.751500
6164.215820 0.000000 1082.796265 0.000000 0.687278 0.000000 -0.726395 0.751522 0.751522 0.751522
6183.571289 0.000000 1085.690674 0.000000 0.160896 0.000000 -0.986971 0.752639 0.752639 0.752639
6180.598145 0.000000 1056.880371 0.000000 0.999909 0.000000 0.013481 0.749924 0.749924 0.749924
6170.219727 0.000000 1065.555542 0.000000 0.960932 0.000000 0.276784 0.748950 0.748950 0.748950
6174.564453 0.000000 1079.683838 0.000000 0.702717 0.000000 -0.711469 0.752964 0.752964 0.752964
6178.745605 0.000000 1024.312500 0.000000 0.999368 0.000000 -0.035534 0.750266 0.750266 0.750266
6166.223633 0.000000 1119.166260 0.000000 0.147474 0.000000 -0.989066 0.752664 0.752664 0.752664
6160.316406 0.000000 1105.151978 0.000000 0.650837 0.000000 -0.759217 0.751614 0.751614 0.751614
6159.690918 0.000000 1133.092407 0.000000 0.982889 0.000000 0.184201 0.749306 0.749306 0.749306
6178.745605 0.000000 1088.296875 0.000000 0.647276 0.000000 0.762256 0.746754 0.746754 0.746754
6154.622559 0.000000 1125.542480 0.000000 0.355663 0.000000 -0.934614 0.761302 0.761302 0.761302
6159.455566 0.000000 1114.322021 0.000000 0.289521 0.000000 0.957172 0.740435 0.740435 0.740435
6156.677734 0.000000 1144.182373 0.000000 0.713323 0.000000 -0.700835 0.754362 0.754362 0.754362
6162.875000 0.000000 1125.953613 0.000000 0.378120 0.000000 0.925757 0.736709 0.736709 0.736709
6158.833008 0.000000 1120.683228 0.000000 0.307862 0.000000 0.951431 0.735869 0.735869 0.735869
6154.631348 0.000000 1152.505615 0.000000 0.994617 0.000000 -0.103618 0.750389 0.750389 0.750389
"}
