k_dasmazar = {
	930.9.12 = {
		holder = 130 #Dasma szal-Maqet
		government = feudal_government
	}
	978.12.28 = {
		holder = 131 #Idras szal-Maqet
		government = feudal_government
	}
	1014.7.3 = {
		holder = 132 #Maqet II szal-Maqet
		government = feudal_government
	}
}