591 = {

    # Misc
    culture = zanite
    religion = cult_of_the_dame

    # History
}

603 = {

    # Misc
    culture = zanite
    religion = cult_of_the_dame

    # History
}

610 = {

    # Misc
    culture = zanite
    religion = cult_of_the_dame

    # History
}

608 = {

    # Misc
    culture = zanite
    religion = cult_of_the_dame

    # History
}

609 = {

    # Misc
    culture = zanite
    religion = cult_of_the_dame

    # History
}

614 = {

    # Misc
    culture = sun_elvish
    religion = cult_of_the_dame

    # History
}

589 = {

    # Misc
    culture = zanite
    religion = cult_of_the_dame

    # History
}

590 = {

    # Misc
    culture = zanite
    religion = cult_of_the_dame

    # History
}