130 = {

    # Misc
    culture = roysfoot_halfling
    religion = small_temple

    # History
}

131 = {

    # Misc
    culture = roysfoot_halfling
    religion = small_temple

    # History
}

132 = {

    # Misc
    culture = roysfoot_halfling
    religion = small_temple

    # History
}

134 = {

    # Misc
    culture = roysfoot_halfling
    religion = small_temple

    # History
}

136 = {

    # Misc
    culture = roysfoot_halfling
    religion = small_temple

    # History
}