175 = {

    # Misc
    culture = damerian
    religion = cult_of_the_dame
	holding = tribal_holding

    # History
}

176 = {

    # Misc
    culture = damerian
    religion = cult_of_the_dame
	holding = tribal_holding

    # History
}

177 = {

    # Misc
    culture = damerian
    religion = cult_of_the_dame
	holding = tribal_holding

    # History
}

178 = {

    # Misc
    culture = damerian
    religion = cult_of_the_dame
	holding = tribal_holding

    # History
}

179 = {

    # Misc
    culture = damerian
    religion = cult_of_the_dame
	holding = tribal_holding

    # History
}