207 = {

    # Misc
    culture = damerian
    religion = cult_of_the_dame

    # History

}

208 = {

    # Misc
    culture = oakfoot_halfling
    religion = small_temple

    # History

}

209 = {

    # Misc
    culture = oakfoot_halfling
    religion = small_temple

    # History

}

347 = {

    # Misc
    culture = oakfoot_halfling
    religion = small_temple

    # History

}