386 = {

    # Misc
    culture = akani
    religion = cult_of_the_dame

    # History
}

387 = {

    # Misc
    culture = akani
    religion = cult_of_the_dame

    # History
}

388 = {

    # Misc
    culture = akani
    religion = cult_of_the_dame

    # History
}

389 = {

    # Misc
    culture = akani
    religion = cult_of_the_dame

    # History
}

390 = {

    # Misc
    culture = akani
    religion = cult_of_the_dame

    # History
}

391 = {

    # Misc
    culture = akani
    religion = cult_of_the_dame

    # History
}

392 = {

    # Misc
    culture = akani
    religion = cult_of_the_dame

    # History
}

393 = {

    # Misc
    culture = akani
    religion = cult_of_the_dame

    # History
}

402 = {

    # Misc
    culture = akani
    religion = cult_of_the_dame

    # History
}

407 = {

    # Misc
    culture = akani
    religion = cult_of_the_dame

    # History
}