521 = {

    # Misc
    culture = bahari
    religion = cult_of_the_dame

    # History
}

522 = {

    # Misc
    culture = bahari
    religion = cult_of_the_dame

    # History
}

523 = {

    # Misc
    culture = bahari
    religion = cult_of_the_dame

    # History
}

581 = {

    # Misc
    culture = bahari
    religion = cult_of_the_dame

    # History
}

520 = {

    # Misc
    culture = bahari
    religion = cult_of_the_dame

    # History
}

528 = {

    # Misc
    culture = bahari
    religion = cult_of_the_dame

    # History
}

529 = {

    # Misc
    culture = bahari
    religion = cult_of_the_dame

    # History
}

516 = {

    # Misc
    culture = ourdi
    religion = cult_of_the_dame
	holding = city_holding

    # History
}

518 = {

    # Misc
    culture = bahari
    religion = cult_of_the_dame

    # History
}

517 = {

    # Misc
    culture = bahari
    religion = cult_of_the_dame

    # History
}

519 = {

    # Misc
    culture = ourdi
    religion = cult_of_the_dame

    # History
}

452 = {

    # Misc
    culture = ourdi
    religion = cult_of_the_dame

    # History
	1020.1.1 = {
		special_building_slot = gemisle_mines_01
	}
}

525 = {

    # Misc
    culture = copper_dwarvish
    religion = cult_of_the_dame

    # History

}

526 = {

    # Misc
    culture = copper_dwarvish
    religion = cult_of_the_dame

    # History

}

527 = {

    # Misc
    culture = copper_dwarvish
    religion = cult_of_the_dame

    # History

}